Team Payroll and the World Series • Lahman
…
What is the range of salaries, across all years?

range(Salaries$salary)
## [1]        0 33000000

And, year by year?

Salaries %>% 
  group_by(yearID) %>% 
  summarise(min=min(salary),
            max=max(salary))
## # A tibble: 32 × 3
##    yearID    min     max
##     <int>  <int>   <int>
##  1   1985  60000 2130300
##  2   1986  60000 2800000
##  3   1987  62500 2127333
##  4   1988  62500 2340000
##  5   1989  62500 2766667
##  6   1990 100000 3200000
##  7   1991 100000 3800000
##  8   1992 109000 6100000
##  9   1993      0 6200000
## 10   1994  50000 6300000
## # ℹ 22 more rows
…
