Appearances table — Appearances • Lahman
…
# Pete Rose's primary position each year of his career
Appearances %>% 
   filter(playerID == "rosepe01") %>%
   group_by(yearID, teamID) %>%
   gather(pos, G, G_1b:G_rf) %>%
   filter(G == max(G)) %>%
   select(yearID:G_all, pos, G) %>%
   mutate(pos = substring(as.character(pos), 3, 4)) %>%
   arrange(yearID, teamID)
#> # A tibble: 25 × 7
#> # Groups:   yearID, teamID [25]
#>    yearID teamID lgID  playerID G_all pos       G
#>     <int> <fct>  <fct> <chr>    <int> <chr> <int>
#>  1   1963 CIN    NL    rosepe01   157 2b      157
#>  2   1964 CIN    NL    rosepe01   136 2b      128
#>  3   1965 CIN    NL    rosepe01   162 2b      161
#>  4   1966 CIN    NL    rosepe01   156 2b      140
#>  5   1967 CIN    NL    rosepe01   148 lf      124
#>  6   1968 CIN    NL    rosepe01   149 rf      142
#>  7   1969 CIN    NL    rosepe01   156 rf      101
#>  8   1970 CIN    NL    rosepe01   159 rf      155
#>  9   1971 CIN    NL    rosepe01   160 rf      156
#> 10   1972 CIN    NL    rosepe01   154 lf      154
#> # ℹ 15 more rows

# Most pitcher appearances each year since 1950
Appearances %>%
   filter(yearID >= 1950) %>%
   group_by(yearID) %>%
   summarise(maxPitcher = playerID[which.max(G_p)],
             maxAppear = max(G_p))
#> # A tibble: 74 × 3
#>    yearID maxPitcher maxAppear
#>     <int> <chr>          <int>
#>  1   1950 konstji01         74
#>  2   1951 kindeel01         63
#>  3   1952 wilheho01         71
#>  4   1953 kindeel01         69
#>  5   1954 hugheji02         60
#>  6   1955 labincl01         60
#>  7   1956 facero01          68
#>  8   1957 lowntu01          67
#>  9   1958 elstodo01         69
#> 10   1959 stalege01         67
#> # ℹ 64 more rows
…
