AwardsShareManagers table — AwardsShareManagers • Lahman
…
    Source

    Lahman, S. (2025) Lahman's Baseball Database, 1871-2023, 2023 version, https://sabr.org/lahman-database/

    Examples

# Voting for the BBWAA Manager of the Year award by year and league

require("dplyr")

# Sort in decreasing order of points by year and league
AwardsShareManagers %>%
   group_by(yearID, lgID) %>%
   arrange(desc(pointsWon))
#> # A tibble: 510 × 7
#> # Groups:   yearID, lgID [82]
#>    awardID                  yearID lgID  playerID pointsWon pointsMax votesFirst
#>    <chr>                     <int> <fct> <chr>        <int>     <int>      <int>
#>  1 BBWAA Manager of the Ye…   2000 NL    bakerdu…       154       160         30
#>  2 BBWAA Manager of the Ye…   2005 NL    coxbo01        152       160         28
#>  3 BBWAA Manager of the Ye…   2011 NL    gibsoki…       152       160         28
#>  4 BBWAA Manager of the Ye…   2009 NL    tracyji…       151       160         29
#>  5 BBWAA Manager of the Ye…   2023 AL    hydebr99       144       150         27
#>  6 BBWAA Manager of the Ye…   2021 NL    kaplega…       143       150         28
#>  7 BBWAA Manager of the Ye…   2004 NL    coxbo01        140       160         22
#>  8 BBWAA Manager of the Ye…   2013 NL    hurdlcl…       140       150         25
#>  9 BBWAA Manager of the Ye…   1991 AL    kellyto…       138       140         27
#> 10 BBWAA Manager of the Ye…   1994 NL    aloufe01       138       140         27
#> # ℹ 500 more rows
…
