Fielding table — Fielding • Lahman
…
   filter(yearID >= 1961 & POS != "DH") %>%
   select(yearID, lgID, POS, InnOuts, PO, A, E) %>%
   group_by(yearID, lgID) %>%
   summarise_at(vars(InnOuts, PO, A, E), funs(sum), na.rm = TRUE) %>%
   mutate(fpct = round( (PO + A)/(PO + A + E), 3), 
          OPE = round(InnOuts/E, 3))
#> Warning: `funs()` was deprecated in dplyr 0.8.0.
#> ℹ Please use a list of either functions or lambdas:
#> 
#> # Simple named list: list(mean = mean, median = median)
#> 
#> # Auto named with `tibble::lst()`: tibble::lst(mean, median)
#> 
#> # Using lambdas list(~ mean(., trim = .2), ~ median(., na.rm = TRUE))
#> # A tibble: 126 × 8
#> # Groups:   yearID [63]
#>    yearID lgID  InnOuts    PO     A     E  fpct   OPE
#>     <int> <fct>   <int> <int> <int> <int> <dbl> <dbl>
#>  1   1961 AL     389523 43213 17237  1506 0.976  259.
#>  2   1961 NL     297720 33080 13728  1167 0.976  255.
#>  3   1962 AL     391878 43449 17138  1364 0.978  287.
#>  4   1962 NL     391206 43470 17832  1555 0.975  252.
#>  5   1963 AL     392877 43589 16998  1347 0.978  292.
#>  6   1963 NL     392946 43661 17681  1577 0.975  249.
#>  7   1964 AL     394593 43774 17130  1261 0.98   313.
#>  8   1964 NL     392094 43566 17933  1586 0.975  247.
#>  9   1965 AL     392562 43546 17231  1359 0.978  289.
#> 10   1965 NL     395384 43932 18008  1486 0.977  266.
#> # ℹ 116 more rows
…
