Hall of Fame Voting Data — HallOfFame • Lahman
…
# First ballot inductees sorted by vote percentage:
playerOutcomes %>%
  filter(nyears == 1L & inducted == "Y") %>%
  arrange(desc(lastPct))
#> # A tibble: 59 × 5
#> # Groups:   playerID [59]
#>    playerID  nyears inducted lastPct lastYear
#>    <chr>      <int> <fct>      <dbl>    <int>
#>  1 riverma01      1 Y          100       2019
#>  2 jeterde01      1 Y           99.7     2020
#>  3 griffke02      1 Y           99.3     2016
#>  4 ryanno01       1 Y           98.8     1999
#>  5 seaveto01      1 Y           98.8     1992
#>  6 ripkeca01      1 Y           98.5     2007
#>  7 brettge01      1 Y           98.2     1999
#>  8 cobbty01       1 Y           98.2     1936
#>  9 aaronha01      1 Y           97.8     1982
#> 10 gwynnto01      1 Y           97.6     2007
#> # ℹ 49 more rows
…
