HomeGames table — HomeGames • Lahman
…
# What is the Toronto Blue Jays annual total home attendance by year?
HomeGames %>%
  filter(team.key == "TOR") %>%
  group_by(year.key) %>%
  summarize(total.attendance = sum(attendance)) %>%
  arrange(year.key)
#> # A tibble: 47 × 2
#>    year.key total.attendance
#>       <int>            <int>
#>  1     1977          1700370
#>  2     1978          1562509
#>  3     1979          1431659
#>  4     1980          1400327
#>  5     1981           755083
#>  6     1982          1275908
#>  7     1983          1930277
#>  8     1984          2110009
#>  9     1985          2468925
#> 10     1986          2455477
#> # ℹ 37 more rows
…
