SeriesPost table — SeriesPost • Lahman
…
# using the dplyr data manipulation package
library("dplyr")
library("tidyr")
library("ggplot2")

## WS winners, arranged in descending order of titles won
ws_winner_table <- SeriesPost %>%
  filter(yearID > "1902", round == "WS") %>%
  group_by(teamIDwinner) %>%
  summarise(wincount = n()) %>%
  arrange(desc(wincount))
ws_winner_table
#> # A tibble: 31 × 2
#>    teamIDwinner wincount
#>    <fct>           <int>
#>  1 NYA                27
#>  2 SLN                11
#>  3 BOS                 9
#>  4 LAN                 6
#>  5 CIN                 5
#>  6 NY1                 5
#>  7 PHA                 5
#>  8 PIT                 5
#>  9 DET                 4
#> 10 OAK                 4
#> # ℹ 21 more rows
…
# Initial year of each round of championship series in modern era
SeriesPost %>% 
    filter(yearID >= 1903) %>%   # modern WS started in 1903
    group_by(round) %>%
    summarise(first_year = min(yearID)) %>%
    arrange(first_year)
#> # A tibble: 21 × 2
#>    round first_year
#>    <chr>      <int>
#>  1 WS          1903
#>  2 ALCS        1969
#>  3 NLCS        1969
#>  4 AEDIV       1981
#>  5 AWDIV       1981
#>  6 NEDIV       1981
#>  7 NWDIV       1981
#>  8 ALDS1       1995
#>  9 ALDS2       1995
#> 10 NLDS1       1995
#> # ℹ 11 more rows

# Ditto, but with more information about each series played
SeriesPost %>% 
  filter(yearID >= 1903) %>%
  group_by(round) %>%
  arrange(yearID) %>%
  do(head(., 1)) %>%
  select(-lgIDwinner, -lgIDloser) %>%
  arrange(yearID, round)
#> # A tibble: 21 × 7
#> # Groups:   round [21]
#>    yearID round teamIDwinner teamIDloser  wins losses  ties
#>     <int> <chr> <fct>        <fct>       <int>  <int> <int>
#>  1   1903 WS    BOS          PIT             5      3     0
#>  2   1969 ALCS  BAL          MIN             3      0     0
#>  3   1969 NLCS  NYN          ATL             3      0     0
#>  4   1981 AEDIV NYA          ML4             3      2     0
#>  5   1981 AWDIV OAK          KCA             3      0     0
#>  6   1981 NEDIV MON          PHI             3      2     0
#>  7   1981 NWDIV LAN          HOU             3      2     0
#>  8   1995 ALDS1 CLE          BOS             3      0     0
#>  9   1995 ALDS2 SEA          NYA             3      2     0
#> 10   1995 NLDS1 ATL          COL             3      1     0
#> # ℹ 11 more rows
…
